Research Methods HS23 - 7 Prepro 3: Demo
…
mit mutate wird ein data.frame vom Umfang her belassen, es werden lediglich zusätzliche Variablen (Spalten) hinzugefügt (siehe Beispiel unten).

# Maximal und minimal Temperatur pro Kalenderwoche
weather_summary <- wetter |>                # 1) nimm den Datensatz "wetter"
  filter(month == 1) |>                     # 2) filter auf den Monat Januar
  mutate(day = day(time)) |>                # 3) erstelle eine neue Spalte "day"
  group_by(day) |>                          # 4) Nutze die neue Spalte um Gruppen zu bilden
  summarise(
    temp_max = max(tre200h0, na.rm = TRUE), # 5) Berechne das Maximum
    temp_min = min(tre200h0, na.rm = TRUE)  # 6) Berechne das Minimum
  )

weather_summary
## # A tibble: 31 × 3
##      day temp_max temp_min
##    <int>    <dbl>    <dbl>
##  1     1      5.8     -4.4
##  2     2      2.8     -4.3
##  3     3      4.2     -3.1
##  4     4      4.7     -2.8
##  5     5     11.4     -0.6
##  6     6      6.7     -1.6
##  7     7      2.9     -2.8
##  8     8      0.2     -3.6
##  9     9      2.1     -8.8
## 10    10      1.6     -2.4
## # ℹ 21 more rows

Reshaping data

Breit → lang

Die Umformung von Tabellen breit→lang erfolgt mittels tidyr(siehe 6). Auch dieses Package funktioniert wunderbar mit piping (|>).

weather_summary |>
  pivot_longer(c(temp_max, temp_min))
## # A tibble: 62 × 3
##      day name     value
##    <int> <chr>    <dbl>
##  1     1 temp_max   5.8
##  2     1 temp_min  -4.4
##  3     2 temp_max   2.8
##  4     2 temp_min  -4.3
##  5     3 temp_max   4.2
##  6     3 temp_min  -3.1
##  7     4 temp_max   4.7
##  8     4 temp_min  -2.8
##  9     5 temp_max  11.4
## 10     5 temp_min  -0.6
## # ℹ 52 more rows

Im Befehl pivot_longer() müssen wir festlegen, welche Spalten zusammengefasst werden sollen (hier: temp_max,temp_min,temp_mean). Alternativ können wir angeben, welche Spalten wir nicht zusammenfassen wollen:

weather_summary |>
  pivot_longer(-day)
## # A tibble: 62 × 3
##      day name     value
##    <int> <chr>    <dbl>
##  1     1 temp_max   5.8
##  2     1 temp_min  -4.4
##  3     2 temp_max   2.8
##  4     2 temp_min  -4.3
##  5     3 temp_max   4.2
##  6     3 temp_min  -3.1
##  7     4 temp_max   4.7
##  8     4 temp_min  -2.8
##  9     5 temp_max  11.4
## 10     5 temp_min  -0.6
## # ℹ 52 more rows
…
Lang → breit

Das Gegenstück zu pivot_longer ist pivot_wider. Mit dieser Funktion können wir eine lange Tabelle in eine breite überführen. Dazu müssen wir in names_from angeben, aus welcher Spalte die neuen Spaltennamen erstellt werden sollen (names_from) und aus welcher Spalte die Werte entstammen sollen (values_from):

weather_summary_long |>
  pivot_wider(names_from = Messtyp, values_from = Messwert)
## # A tibble: 31 × 3
##      day temp_max temp_min
##    <int>    <dbl>    <dbl>
##  1     1      5.8     -4.4
##  2     2      2.8     -4.3
##  3     3      4.2     -3.1
##  4     4      4.7     -2.8
##  5     5     11.4     -0.6
##  6     6      6.7     -1.6
##  7     7      2.9     -2.8
##  8     8      0.2     -3.6
##  9     9      2.1     -8.8
## 10    10      1.6     -2.4
## # ℹ 21 more rows
…
