Research Methods HS23 - Rauman 1: Übung A
…
Jetzt wo das CRS der Datensätze bekannt ist, können wir ggplot2 nutzen um usere Daten zu visualisieren. In InfoVis 1 & 2 haben wir intensiv mit ggplot2 gearbeitet und dort die Layers geom_point() und geom_line() kennen gelernt. Zusätzlich beinhaltet ggplot die Möglichkeit, mit geom_sf() Vektordaten direkt und sehr einfach zu plotten.

Aufgabe 3: Koordinatensyteme transformieren

In der vorherigen Übung haben wir das bestehende Koordinatensystem zugewiesen. Dabei haben wir die bestehenden Koordinaten (in der Spalte geom) nicht manipuliert. Ganz anders ist eine Transformation der Daten von einem Koordinatensystem in das andere. Bei einer Transformation werden die Koordinaten in das neue Koordinatensystem umgerechnet und somit manipuliert. Aus praktischen Gründen wollen  wir all unsere Daten ins neue Schweizer Koordinatensystem CH1903+ LV95 transfomieren. Transformiere den Datensatz kantone mit st_transform()in CH1903+ LV95, nutze dafür den korrekten EPSG-Code.

Vor der Transformation (betrachte die Attribute Bounding box, Projected CRS sowie die Werte in der Spalte geom):

kantone
## Simple feature collection with 51 features and 6 fields
## Geometry type: POLYGON
## Dimension:     XY
## Bounding box:  xmin: 5.955902 ymin: 45.81796 xmax: 10.49217 ymax: 47.80845
## Geodetic CRS:  WGS 84
## # A tibble: 51 × 7
##    NAME       KANTONSNUM SEE_FLAECH KANTONSFLA KT_TEIL EINWOHNERZ
##  * <chr>           <int>      <dbl>      <dbl> <chr>        <int>
##  1 Graubünden         18         NA     710530 0           197888
##  2 Bern                2      11897     595952 1          1031126
##  3 Valais             23       1060     522463 0           341463
##  4 Vaud               22      39097     321201 1           793129
##  5 Ticino             21       7147     281216 0           353709
##  6 St. Gallen         17       7720     202820 1           504686
##  7 Zürich              1       6811     172894 0          1504346
##  8 Fribourg           10       7818     167142 1           315074
##  9 Luzern              3       6438     149352 0           406506
## 10 Aargau             19        870     140380 1           670988
## # ℹ 41 more rows
## # ℹ 1 more variable: geom <POLYGON [°]>

Nach der Transformation (betrachte die Attribute Bounding box, Projected CRS sowie die Werte in der Spalte geom):

kantone
## Simple feature collection with 51 features and 6 fields
## Geometry type: POLYGON
## Dimension:     XY
## Bounding box:  xmin: 2485410 ymin: 1075268 xmax: 2833858 ymax: 1295934
## Projected CRS: CH1903+ / LV95
## # A tibble: 51 × 7
##    NAME       KANTONSNUM SEE_FLAECH KANTONSFLA KT_TEIL EINWOHNERZ
##  * <chr>           <int>      <dbl>      <dbl> <chr>        <int>
##  1 Graubünden         18         NA     710530 0           197888
##  2 Bern                2      11897     595952 1          1031126
##  3 Valais             23       1060     522463 0           341463
##  4 Vaud               22      39097     321201 1           793129
##  5 Ticino             21       7147     281216 0           353709
##  6 St. Gallen         17       7720     202820 1           504686
##  7 Zürich              1       6811     172894 0          1504346
##  8 Fribourg           10       7818     167142 1           315074
##  9 Luzern              3       6438     149352 0           406506
## 10 Aargau             19        870     140380 1           670988
## # ℹ 41 more rows
## # ℹ 1 more variable: geom <POLYGON [m]>
…
